; Engine configuration file.
; It's best edited using the editor UI and not directly,
; since the parameters that go here are not all obvious.
;
; Format:
;   [section] ; section goes between []
;   param=value ; assign values to parameters

config_version=4

_global_script_classes=[ {
"base": "Resource",
"class": "DialogueResource",
"language": "GDScript",
"path": "res://addons/dialogue_manager/dialogue_resource.gd"
}, {
"base": "Node",
"class": "Mission",
"language": "GDScript",
"path": "res://src/common/Mission.gd"
}, {
"base": "Area2D",
"class": "NPC",
"language": "GDScript",
"path": "res://src/common/NPC.gd"
}, {
"base": "NPC",
"class": "NPCC",
"language": "GDScript",
"path": "res://src/client/NPC.gd"
}, {
"base": "NPC",
"class": "NPCS",
"language": "GDScript",
"path": "res://src/server/NPC.gd"
}, {
"base": "Area2D",
"class": "Player",
"language": "GDScript",
"path": "res://src/common/Player.gd"
}, {
"base": "Player",
"class": "PlayerC",
"language": "GDScript",
"path": "res://src/client/Player.gd"
}, {
"base": "Player",
"class": "PlayerS",
"language": "GDScript",
"path": "res://src/server/Player.gd"
} ]
_global_script_class_icons={
"DialogueResource": "",
"Mission": "",
"NPC": "",
"NPCC": "",
"NPCS": "",
"Player": "",
"PlayerC": "",
"PlayerS": ""
}

[application]

config/name="FCTRPG"
run/main_scene="res://src/Entry.tscn"
boot_splash/image="res://splash-screen.png"
config/icon="res://logo.png"

[autoload]

Globals="*res://src/common/Globals.gd"
WorldRWS="*res://src/common/WorldRWS.gd"
Network="*res://src/common/Network.gd"
Events="*res://src/common/Events.gd"
ClientSettings="*res://src/common/ClientSettings.gd"
DialogueManager="*res://addons/dialogue_manager/dialogue_manager.gd"

[display]

window/size/width=320
window/size/height=180
window/stretch/mode="2d"
window/stretch/aspect="keep"

[editor]

main_run_args="--server --port 4242 --name test_world --max-players 10 --admin-user test-user"

[editor_plugins]

enabled=PoolStringArray( "res://addons/dialogue_manager/plugin.cfg" )

[input]

ui_accept={
"deadzone": 0.5,
"events": [ Object(InputEventKey,"resource_local_to_scene":false,"resource_name":"","device":0,"alt":false,"shift":false,"control":false,"meta":false,"command":false,"pressed":false,"scancode":16777221,"physical_scancode":0,"unicode":0,"echo":false,"script":null)
, Object(InputEventKey,"resource_local_to_scene":false,"resource_name":"","device":0,"alt":false,"shift":false,"control":false,"meta":false,"command":false,"pressed":false,"scancode":16777222,"physical_scancode":0,"unicode":0,"echo":false,"script":null)
, Object(InputEventKey,"resource_local_to_scene":false,"resource_name":"","device":0,"alt":false,"shift":false,"control":false,"meta":false,"command":false,"pressed":false,"scancode":32,"physical_scancode":0,"unicode":0,"echo":false,"script":null)
, Object(InputEventJoypadButton,"resource_local_to_scene":false,"resource_name":"","device":0,"button_index":0,"pressure":0.0,"pressed":false,"script":null)
, Object(InputEventKey,"resource_local_to_scene":false,"resource_name":"","device":0,"alt":false,"shift":false,"control":false,"meta":false,"command":false,"pressed":false,"scancode":90,"physical_scancode":0,"unicode":0,"echo":false,"script":null)
 ]
}
chat={
"deadzone": 0.5,
"events": [ Object(InputEventKey,"resource_local_to_scene":false,"resource_name":"","device":0,"alt":false,"shift":false,"control":false,"meta":false,"command":false,"pressed":false,"scancode":84,"physical_scancode":0,"unicode":0,"echo":false,"script":null)
 ]
}
action={
"deadzone": 0.5,
"events": [ Object(InputEventKey,"resource_local_to_scene":false,"resource_name":"","device":0,"alt":false,"shift":false,"control":false,"meta":false,"command":false,"pressed":false,"scancode":90,"physical_scancode":0,"unicode":0,"echo":false,"script":null)
 ]
}
lsd={
"deadzone": 0.5,
"events": [ Object(InputEventKey,"resource_local_to_scene":false,"resource_name":"","device":0,"alt":false,"shift":false,"control":true,"meta":false,"command":true,"pressed":false,"scancode":76,"physical_scancode":0,"unicode":0,"echo":false,"script":null)
 ]
}

[locale]

translations=PoolStringArray( "res://locale/messages-de_DE.po", "res://locale/messages-en_US.po", "res://locale/messages-pt_PT.po", "res://locale/maria-de_DE.po", "res://locale/maria-en_US.po", "res://locale/maria-pt_PT.po", "res://locale/miguel-de_DE.po", "res://locale/miguel-en_US.po", "res://locale/miguel-pt_PT.po" )

[physics]

common/enable_pause_aware_picking=true
